{
  "FACEBOOK_CLIENTID": "1163281123682989",
  "FACEBOOK_SECRET": "fcdbf50fe637e24828476661176e34eb",
  "TWITTER_CLIENTID": "ID",
  "TWITTER_SECRET": "SECRET",
  "GITHUB_CLIENTID": "ID",
  "GITHUB_SECRET": "SECRET",
  "LINKEDIN_CLIENTID": "ID",
  "LINKEDIN_SECRET": "SECRET",
  "GOOGLE_CLIENTID": "ID",
  "GOOGLE_SECRET": "SECRET"
}
